[0. 0. 0. 0. 0. 0. 0. 0. 0. 0. 0. 0. 0. 0. 0. 0. 0. 0. 0. 0.]
[0. 0. 0. 1. 0. 0. 0. 0. 0. 0. 0. 0. 0. 0. 0. 0. 0. 0. 0. 0.]
[0. 0. 0. 0. 0. 0. 0. 0. 0. 1. 1. 0. 0. 0. 1. 0. 0. 1. 0. 0.]
[0. 0. 0. 0. 0. 0. 0. 0. 0. 1. 1. 0. 0. 0. 0. 0. 0. 0. 0. 0.]
[0. 0. 0. 0. 0. 0. 0. 0. 0. 0. 0. 0. 0. 0. 0. 0. 0. 0. 0. 0.]
[0. 1. 0. 0. 0. 0. 0. 0. 0. 0. 0. 0. 0. 0. 0. 1. 0. 0. 0. 0.]
[0. 0. 0. 0. 1. 0. 0. 0. 1. 0. 0. 0. 0. 0. 0. 0. 0. 0. 0. 0.]
[0. 0. 0. 0. 0. 0. 0. 0. 0. 0. 0. 0. 0. 0. 0. 0. 0. 0. 0. 0.]
[0. 0. 0. 0. 0. 0. 0. 0. 0. 0. 0. 0. 0. 0. 1. 1. 0. 0. 0. 0.]
[0. 0. 0. 0. 1. 0. 0. 0. 1. 0. 0. 0. 0. 0. 1. 1. 0. 0. 0. 0.]
[0. 0. 0. 0. 0. 0. 0. 0. 0. 0. 0. 0. 0. 0. 0. 0. 0. 0. 1. 0.]
[0. 1. 0. 0. 0. 0. 0. 1. 0. 0. 0. 0. 0. 0. 0. 0. 0. 0. 0. 0.]
[0. 0. 0. 0. 0. 0. 0. 0. 0. 0. 0. 0. 0. 0. 0. 0. 0. 0. 0. 0.]
[0. 0. 0. 0. 0. 0. 0. 0. 0. 0. 0. 1. 0. 0. 0. 0. 0. 0. 0. 0.]
[0. 0. 0. 0. 0. 0. 0. 0. 0. 0. 0. 0. 0. 0. 0. 0. 0. 0. 0. 0.]
[0. 0. 0. 0. 0. 0. 1. 0. 0. 0. 0. 0. 0. 0. 0. 0. 1. 0. 0. 0.]
[0. 0. 0. 0. 0. 0. 0. 0. 0. 0. 0. 0. 0. 0. 0. 0. 0. 0. 0. 0.]
[0. 0. 0. 0. 0. 0. 0. 0. 0. 0. 0. 1. 0. 0. 0. 0. 0. 0. 0. 0.]
[0. 0. 0. 0. 0. 0. 0. 0. 0. 0. 0. 0. 0. 0. 0. 0. 0. 0. 0. 0.]
[0. 0. 0. 0. 0. 0. 0. 0. 0. 0. 0. 0. 0. 0. 0. 0. 0. 0. 0. 0.]
Inicio: 0 0
Final:  19 19
{'model': 24, 'firmware': (1, 27), 'hardware': 5, 'serialnumber': 'CEF99AF2C1EA9FC2A2EB92F15D2A3C00'}
('Good', 0)
RPlidar data acquisition thread [Listening]
Array de particulas =  [[x=646.47 y=738.33 orient=6.0071], [x=892.67 y=526.09 orient=5.6101], [x=37.213 y=419.39 orient=2.0364], [x=588.73 y=73.575 orient=0.1763], [x=617.48 y=406.37 orient=2.7161], [x=137.02 y=808.98 orient=1.7602], [x=162.85 y=278.60 orient=5.7664], [x=659.12 y=812.70 orient=0.1709], [x=146.00 y=380.59 orient=1.5791], [x=359.19 y=454.53 orient=2.4701], [x=309.43 y=743.32 orient=4.4423], [x=603.82 y=348.26 orient=2.4023], [x=311.63 y=911.36 orient=1.1045], [x=431.98 y=515.75 orient=2.6434], [x=813.86 y=557.38 orient=1.7883], [x=695.32 y=78.015 orient=1.4571], [x=572.40 y=609.12 orient=5.9998], [x=982.24 y=419.63 orient=4.4439], [x=976.25 y=704.14 orient=2.5028], [x=33.851 y=330.66 orient=1.4350], [x=398.78 y=406.88 orient=4.2322], [x=425.89 y=253.86 orient=1.0457], [x=387.11 y=488.18 orient=5.3641], [x=563.21 y=544.68 orient=0.3280], [x=27.263 y=937.40 orient=4.4013], [x=179.78 y=2.1908 orient=0.9896], [x=783.35 y=622.91 orient=3.2707], [x=177.26 y=830.59 orient=4.6483], [x=258.90 y=597.74 orient=3.4709], [x=674.34 y=419.19 orient=1.8104], [x=749.79 y=927.62 orient=4.9347], [x=767.75 y=871.20 orient=0.7366], [x=490.00 y=21.453 orient=6.1848], [x=729.35 y=338.72 orient=3.0588], [x=838.62 y=476.92 orient=3.0723], [x=721.90 y=99.644 orient=4.6641], [x=197.46 y=188.38 orient=4.9502], [x=863.49 y=485.71 orient=2.2994], [x=108.55 y=566.12 orient=4.5339], [x=101.07 y=338.34 orient=0.0057], [x=94.975 y=800.52 orient=0.5559], [x=761.14 y=491.91 orient=6.2755], [x=191.33 y=524.57 orient=1.5227], [x=955.65 y=149.20 orient=3.7854], [x=750.72 y=450.56 orient=2.1229], [x=299.38 y=232.70 orient=1.7033], [x=880.79 y=704.76 orient=3.4319], [x=741.21 y=887.17 orient=1.8661], [x=951.00 y=582.55 orient=0.2426], [x=513.49 y=423.56 orient=0.4451], [x=443.26 y=129.92 orient=4.8338], [x=950.87 y=375.90 orient=6.0357], [x=400.68 y=361.24 orient=2.9653], [x=841.00 y=899.29 orient=4.9900], [x=349.81 y=595.62 orient=4.5660], [x=101.55 y=82.793 orient=2.6368], [x=564.65 y=208.77 orient=3.0617], [x=668.30 y=654.34 orient=0.5996], [x=833.97 y=597.34 orient=4.1984], [x=871.76 y=438.75 orient=2.1845], [x=604.86 y=485.02 orient=3.3644], [x=59.165 y=172.51 orient=0.4011], [x=618.01 y=773.72 orient=0.8791], [x=945.29 y=108.65 orient=4.6588], [x=480.81 y=805.19 orient=3.3391], [x=658.51 y=635.95 orient=0.3877], [x=857.77 y=217.54 orient=5.5410], [x=673.14 y=894.07 orient=2.5019], [x=747.68 y=568.03 orient=4.1965], [x=874.69 y=320.92 orient=1.4663], [x=34.604 y=113.63 orient=3.6909], [x=804.29 y=82.426 orient=4.2687], [x=787.63 y=119.74 orient=3.0446], [x=86.569 y=219.05 orient=3.2747], [x=307.18 y=611.40 orient=1.3037], [x=743.31 y=11.022 orient=2.1703], [x=714.77 y=345.17 orient=3.9818], [x=283.17 y=107.62 orient=4.2725], [x=518.43 y=77.587 orient=4.4307], [x=228.32 y=611.32 orient=5.6843], [x=987.02 y=653.07 orient=4.9096], [x=295.92 y=148.81 orient=3.4627], [x=226.08 y=123.62 orient=2.0547], [x=957.06 y=194.12 orient=3.4919], [x=567.21 y=907.47 orient=4.6590], [x=23.050 y=820.52 orient=0.1920], [x=679.98 y=84.298 orient=3.2672], [x=203.88 y=911.79 orient=5.7742], [x=904.19 y=406.06 orient=3.0160], [x=733.85 y=286.74 orient=0.7115], [x=327.77 y=342.48 orient=1.8589], [x=904.93 y=990.34 orient=0.9190], [x=432.05 y=407.92 orient=2.7572], [x=567.96 y=820.47 orient=0.6288], [x=187.27 y=545.44 orient=3.4884], [x=581.73 y=586.71 orient=3.4496], [x=174.13 y=245.36 orient=1.3191], [x=414.78 y=716.66 orient=5.5193], [x=466.13 y=230.18 orient=5.6308], [x=777.76 y=23.967 orient=0.8576], [x=568.49 y=72.529 orient=5.4698], [x=138.30 y=105.54 orient=3.6996], [x=656.63 y=589.63 orient=0.2343], [x=552.01 y=157.93 orient=2.1637], [x=504.07 y=449.89 orient=6.1497], [x=199.30 y=438.08 orient=6.1248], [x=147.07 y=30.630 orient=5.3117], [x=334.18 y=772.77 orient=0.8149], [x=296.24 y=805.82 orient=1.2640], [x=133.63 y=159.15 orient=2.2324], [x=737.89 y=160.56 orient=5.3352], [x=403.92 y=358.08 orient=4.1131], [x=775.47 y=339.60 orient=5.9945], [x=709.97 y=383.88 orient=3.1499], [x=830.14 y=345.77 orient=5.6750], [x=580.27 y=13.333 orient=6.0767], [x=823.32 y=342.34 orient=0.9463], [x=266.53 y=23.390 orient=0.4528], [x=372.88 y=294.44 orient=3.2281], [x=507.81 y=362.60 orient=2.1891], [x=142.76 y=96.287 orient=1.0321], [x=531.05 y=562.55 orient=2.4114], [x=350.87 y=178.97 orient=0.6574], [x=430.19 y=971.15 orient=5.0024], [x=638.73 y=604.93 orient=3.1163], [x=769.01 y=882.53 orient=5.6562], [x=541.63 y=88.723 orient=5.6850], [x=410.93 y=630.83 orient=3.9107], [x=48.737 y=512.04 orient=0.8934], [x=503.34 y=573.75 orient=1.7637], [x=618.40 y=493.71 orient=3.9965], [x=251.63 y=19.642 orient=1.9582], [x=895.85 y=430.15 orient=5.0396], [x=763.50 y=505.23 orient=3.1994], [x=911.25 y=888.53 orient=3.5137], [x=501.15 y=800.98 orient=3.2242], [x=927.57 y=555.06 orient=3.8334], [x=644.73 y=498.33 orient=5.1139], [x=223.25 y=406.87 orient=2.9594], [x=880.76 y=888.94 orient=0.3945], [x=476.01 y=368.37 orient=3.2713], [x=836.58 y=123.20 orient=4.8218], [x=618.20 y=9.1842 orient=0.0358], [x=391.29 y=180.84 orient=4.6217], [x=881.43 y=228.25 orient=4.1144], [x=145.82 y=112.15 orient=5.6568], [x=758.93 y=931.54 orient=2.4426], [x=260.40 y=484.54 orient=2.6945], [x=791.23 y=233.70 orient=3.2672], [x=186.65 y=992.83 orient=0.1276], [x=605.34 y=246.20 orient=4.3883], [x=571.30 y=885.02 orient=6.2725], [x=478.77 y=641.85 orient=0.1638], [x=136.81 y=319.20 orient=4.3560], [x=293.80 y=945.85 orient=0.7742], [x=408.16 y=777.30 orient=0.7730], [x=52.338 y=46.055 orient=4.3594], [x=289.28 y=668.22 orient=3.0937], [x=682.44 y=640.21 orient=1.7650], [x=781.81 y=962.40 orient=2.0153], [x=490.21 y=740.24 orient=6.2779], [x=568.53 y=934.36 orient=1.3700], [x=372.21 y=494.35 orient=2.8668], [x=211.14 y=170.48 orient=2.5743], [x=391.71 y=587.89 orient=4.6999], [x=151.75 y=239.52 orient=5.0711], [x=635.21 y=168.10 orient=2.9450], [x=644.96 y=665.54 orient=1.6803], [x=545.49 y=311.91 orient=3.2324], [x=759.15 y=86.483 orient=3.6306], [x=754.57 y=526.14 orient=5.1669], [x=674.53 y=807.28 orient=1.6602], [x=47.856 y=896.65 orient=1.4375], [x=90.621 y=436.71 orient=1.5040], [x=212.05 y=721.70 orient=2.5460], [x=146.50 y=662.40 orient=3.8026], [x=151.83 y=25.108 orient=2.4546], [x=183.76 y=891.11 orient=2.4156], [x=405.19 y=660.07 orient=3.3688], [x=970.90 y=625.06 orient=2.8427], [x=230.41 y=875.57 orient=0.5478], [x=533.89 y=134.75 orient=4.7327], [x=37.961 y=139.90 orient=0.7372], [x=775.84 y=136.86 orient=2.4298], [x=643.41 y=694.18 orient=0.0638], [x=721.54 y=698.44 orient=0.0071], [x=576.98 y=665.48 orient=1.0424], [x=927.79 y=572.81 orient=1.5800], [x=367.51 y=236.69 orient=5.6554], [x=728.57 y=351.56 orient=0.9277], [x=972.25 y=617.69 orient=0.6516], [x=898.81 y=207.19 orient=5.4263], [x=105.11 y=261.19 orient=2.0891], [x=714.69 y=738.65 orient=4.4135], [x=493.50 y=339.70 orient=5.4271], [x=149.50 y=871.89 orient=0.0470], [x=203.17 y=696.32 orient=0.1463], [x=326.13 y=35.186 orient=3.3645], [x=733.74 y=222.27 orient=3.7053], [x=425.18 y=754.60 orient=5.9448]]
****************************
****     SELF TEST     *****
Motor:      ERROR
Accel data: OK
RPlidar:    OK
****************************
Tiempo de prediccion: 0.006789
Get SCAN
-- Tiempo de Rotacion: 0.002559
-- Tiempo de PrediccionLnmk: 0.000187
-- Tiempo de AsociccionLnmk: 0.033138
-- Tiempo de WeightLnmk: 0.000149
- Tiempo de update: 6.866937
- Tiempo de Norm: 0.001766
- Tiempo de Resample: 0.172502
Tiempo de update top: 7.041424
Tiempo de prediccion: 0.006738
Get SCAN
-- Tiempo de Rotacion: 0.002436
-- Tiempo de PrediccionLnmk: 0.000192
-- Tiempo de AsociccionLnmk: 0.029505
-- Tiempo de WeightLnmk: 0.000152
-- Tiempo de Rotacion: 0.002694
-- Tiempo de PrediccionLnmk: 0.000180
-- Tiempo de AsociccionLnmk: 0.029245
-- Tiempo de WeightLnmk: 0.000156
- Tiempo de update: 6.716402
- Tiempo de Norm: 0.002048
- Tiempo de Resample: 0.183372
Tiempo de update top: 6.902173
Tiempo de prediccion: 0.007005
Get SCAN
- Tiempo de update: 6.892641
- Tiempo de Norm: 0.001814
- Tiempo de Resample: 0.177915
Tiempo de update top: 7.072862
Tiempo de prediccion: 0.007014
Get SCAN
- Tiempo de update: 6.898335
- Tiempo de Norm: 0.001853
- Tiempo de Resample: 0.176779
Tiempo de update top: 7.077268
Tiempo de prediccion: 0.007952
Get SCAN
- Tiempo de update: 6.780300
- Tiempo de Norm: 0.001817
- Tiempo de Resample: 0.172648
Tiempo de update top: 6.955274
Tiempo de prediccion: 0.007181
Get SCAN
- Tiempo de update: 7.087285
- Tiempo de Norm: 0.002201
- Tiempo de Resample: 0.191322
Tiempo de update top: 7.281044
Tiempo de prediccion: 0.007309
Get SCAN
- Tiempo de update: 7.204136
- Tiempo de Norm: 0.001715
- Tiempo de Resample: 0.181971
Tiempo de update top: 7.388144
Tiempo de prediccion: 0.008099
Get SCAN
- Tiempo de update: 7.143314
- Tiempo de Norm: 0.001765
- Tiempo de Resample: 0.190997
Tiempo de update top: 7.336310
Cleanup Explorer Robot
RPlidar data acquisition thread [Finished]
Cleanup RPlidar
