[0. 0. 0. 0. 0. 0. 0. 0. 0. 0. 0. 1. 0. 0. 0. 0. 1. 0. 0. 0.]
[0. 0. 0. 1. 0. 0. 0. 0. 0. 0. 0. 0. 0. 0. 0. 0. 0. 0. 0. 1.]
[0. 0. 0. 0. 0. 0. 1. 0. 0. 1. 1. 0. 0. 0. 1. 0. 0. 1. 0. 0.]
[0. 1. 0. 0. 0. 0. 0. 0. 0. 1. 1. 0. 0. 0. 0. 0. 0. 0. 0. 0.]
[0. 0. 0. 0. 0. 0. 1. 0. 0. 0. 0. 0. 0. 0. 0. 0. 0. 0. 1. 0.]
[0. 1. 0. 0. 0. 0. 0. 0. 0. 0. 0. 0. 1. 0. 0. 1. 0. 0. 0. 0.]
[0. 0. 0. 0. 1. 0. 0. 0. 1. 0. 0. 0. 0. 0. 0. 0. 0. 0. 0. 0.]
[0. 0. 0. 0. 0. 0. 0. 0. 0. 0. 0. 0. 1. 0. 0. 0. 0. 0. 0. 0.]
[0. 0. 0. 0. 0. 0. 0. 0. 0. 0. 0. 0. 0. 0. 1. 1. 0. 0. 1. 0.]
[0. 0. 0. 0. 1. 0. 0. 0. 1. 0. 0. 1. 0. 0. 1. 1. 0. 0. 0. 0.]
[0. 0. 0. 0. 0. 0. 0. 0. 0. 0. 0. 0. 0. 0. 0. 0. 0. 0. 1. 0.]
[0. 1. 0. 0. 0. 0. 0. 1. 0. 0. 0. 0. 0. 0. 0. 0. 0. 0. 0. 0.]
[0. 0. 0. 1. 0. 0. 0. 0. 0. 0. 0. 0. 0. 0. 1. 0. 0. 0. 0. 0.]
[0. 0. 0. 0. 0. 0. 0. 0. 0. 0. 0. 1. 0. 0. 0. 0. 0. 1. 0. 0.]
[0. 1. 0. 0. 1. 0. 0. 0. 0. 0. 0. 0. 0. 0. 0. 0. 0. 0. 0. 0.]
[0. 0. 0. 0. 0. 0. 1. 0. 0. 0. 0. 1. 0. 0. 0. 0. 1. 0. 0. 0.]
[0. 0. 0. 0. 0. 0. 0. 0. 1. 0. 0. 0. 0. 0. 0. 0. 0. 0. 0. 1.]
[0. 0. 0. 1. 0. 0. 0. 0. 0. 0. 0. 1. 0. 0. 0. 1. 0. 0. 0. 0.]
[0. 0. 0. 0. 0. 0. 0. 0. 0. 1. 0. 0. 0. 1. 0. 0. 0. 0. 1. 0.]
[0. 0. 0. 0. 0. 0. 0. 0. 0. 0. 0. 0. 0. 0. 0. 0. 0. 0. 0. 0.]
Inicio: 0 0
Final:  19 19
{'model': 24, 'firmware': (1, 27), 'hardware': 5, 'serialnumber': 'CEF99AF2C1EA9FC2A2EB92F15D2A3C00'}
('Good', 0)
RPlidar data acquisition thread [Listening]
Array de particulas =  [[x=34.820 y=490.30 orient=0.4423], [x=838.08 y=497.69 orient=2.8649], [x=318.27 y=188.39 orient=4.8374], [x=102.16 y=620.47 orient=1.1410], [x=382.82 y=85.929 orient=1.3961], [x=440.43 y=463.74 orient=6.2524], [x=218.18 y=478.06 orient=3.8827], [x=472.36 y=150.28 orient=2.3203], [x=813.95 y=130.69 orient=4.4099], [x=429.72 y=296.13 orient=2.5961], [x=272.55 y=883.64 orient=5.3673], [x=170.93 y=448.94 orient=3.9863], [x=707.30 y=337.33 orient=2.9430], [x=934.39 y=517.35 orient=3.5985], [x=851.54 y=682.95 orient=3.9347], [x=955.87 y=730.16 orient=0.2852], [x=591.29 y=493.60 orient=5.6032], [x=152.29 y=207.97 orient=2.7533], [x=828.69 y=731.83 orient=5.5930], [x=981.57 y=569.25 orient=1.5406], [x=553.98 y=904.00 orient=4.1672], [x=870.04 y=32.794 orient=5.4485], [x=891.55 y=356.65 orient=2.6001], [x=390.72 y=923.91 orient=4.5226], [x=866.66 y=970.40 orient=1.5341], [x=353.83 y=77.567 orient=4.6969], [x=93.214 y=364.57 orient=0.1154], [x=582.30 y=142.81 orient=1.8877], [x=290.42 y=31.589 orient=5.9807], [x=124.50 y=52.935 orient=3.0966], [x=403.60 y=378.48 orient=1.1593], [x=607.98 y=123.98 orient=1.2990], [x=873.12 y=871.02 orient=5.1783], [x=538.21 y=1.8132 orient=5.9758], [x=718.28 y=108.66 orient=4.3211], [x=891.26 y=959.96 orient=2.1354], [x=590.44 y=179.67 orient=4.0306], [x=952.54 y=603.88 orient=1.3915], [x=80.098 y=329.79 orient=2.4206], [x=730.74 y=833.71 orient=6.1504], [x=549.35 y=937.34 orient=6.1731], [x=504.53 y=930.62 orient=0.3376], [x=224.81 y=330.61 orient=1.3487], [x=946.97 y=639.10 orient=2.8782], [x=112.77 y=121.73 orient=2.9303], [x=217.14 y=377.40 orient=3.1991], [x=359.03 y=197.98 orient=4.7956], [x=282.27 y=456.44 orient=6.0004], [x=978.96 y=126.98 orient=4.9618], [x=319.24 y=607.13 orient=5.6735], [x=593.41 y=938.45 orient=0.0890], [x=371.69 y=466.38 orient=4.5478], [x=889.78 y=202.66 orient=1.9142], [x=896.52 y=844.22 orient=4.6280], [x=720.50 y=661.37 orient=3.3534], [x=646.67 y=282.44 orient=0.8166], [x=508.76 y=792.74 orient=1.0636], [x=714.51 y=47.551 orient=4.7240], [x=496.15 y=529.86 orient=0.4046], [x=593.66 y=573.14 orient=3.6915], [x=171.43 y=505.33 orient=2.2683], [x=273.06 y=19.845 orient=0.5562], [x=917.86 y=901.05 orient=2.6314], [x=625.28 y=780.25 orient=1.6081], [x=79.917 y=783.37 orient=0.5566], [x=351.53 y=510.79 orient=2.7570], [x=660.89 y=108.75 orient=2.3875], [x=321.16 y=932.21 orient=1.3731], [x=604.59 y=701.21 orient=6.0900], [x=686.78 y=889.86 orient=4.6170], [x=965.60 y=204.23 orient=3.0570], [x=759.37 y=943.23 orient=4.0112], [x=853.43 y=692.29 orient=2.7494], [x=445.13 y=124.81 orient=2.6158], [x=306.32 y=820.71 orient=1.9181], [x=685.89 y=142.92 orient=0.2235], [x=609.59 y=555.07 orient=4.0011], [x=112.57 y=487.79 orient=5.2942], [x=803.73 y=718.08 orient=5.4275], [x=469.71 y=194.66 orient=2.5417], [x=775.12 y=114.00 orient=6.0788], [x=828.10 y=735.97 orient=5.5652], [x=973.60 y=275.12 orient=4.2296], [x=100.58 y=286.62 orient=4.5977], [x=143.61 y=28.628 orient=3.6828], [x=876.45 y=824.19 orient=2.7175], [x=243.47 y=869.18 orient=3.7538], [x=891.80 y=291.15 orient=2.4601], [x=844.85 y=643.00 orient=0.4419], [x=162.19 y=488.94 orient=1.0839], [x=37.838 y=684.91 orient=5.5697], [x=625.87 y=203.98 orient=4.5026], [x=951.68 y=796.00 orient=0.9908], [x=462.84 y=414.75 orient=2.2801], [x=424.02 y=758.46 orient=4.0562], [x=49.256 y=873.76 orient=2.0557], [x=347.98 y=225.31 orient=0.3123], [x=274.17 y=800.73 orient=3.9275], [x=943.12 y=793.55 orient=3.0941], [x=741.24 y=845.75 orient=2.7180]]
****************************
****     SELF TEST     *****
Motor:      ERROR
Accel data: OK
RPlidar:    OK
****************************
Tiempo de prediccion: 0.003581
Get SCAN
-- Tiempo de Rotacion: 0.002844
-- Tiempo de PrediccionLnmk: 0.000359
-- Tiempo de AsociccionLnmk: 0.063370
-- Tiempo de WeightLnmk: 0.000272
- Tiempo de update: 6.804988
- Tiempo de Norm: 0.000950
- Tiempo de Resample: 0.150468
Tiempo de update top: 6.956624
Tiempo de prediccion: 0.004514
Get SCAN
- Tiempo de update: 6.771029
- Tiempo de Norm: 0.000869
- Tiempo de Resample: 0.154878
Tiempo de update top: 6.926956
Tiempo de prediccion: 0.003353
Get SCAN
- Tiempo de update: 6.806773
- Tiempo de Norm: 0.001172
- Tiempo de Resample: 0.141025
Tiempo de update top: 6.949280
Tiempo de prediccion: 0.004168
Get SCAN
- Tiempo de update: 6.817241
- Tiempo de Norm: 0.001011
- Tiempo de Resample: 0.145958
Tiempo de update top: 6.964537
Tiempo de prediccion: 0.003972
Get SCAN
- Tiempo de update: 6.766862
- Tiempo de Norm: 0.000856
- Tiempo de Resample: 0.149835
Tiempo de update top: 6.917744
Tiempo de prediccion: 0.003649
Get SCAN
- Tiempo de update: 6.763116
- Tiempo de Norm: 0.001076
- Tiempo de Resample: 0.153382
Tiempo de update top: 6.917935
Tiempo de prediccion: 0.003841
Get SCAN
- Tiempo de update: 7.381085
- Tiempo de Norm: 0.000962
- Tiempo de Resample: 0.172847
Tiempo de update top: 7.555166
Tiempo de prediccion: 0.003433
Get SCAN
- Tiempo de update: 7.240032
- Tiempo de Norm: 0.001641
- Tiempo de Resample: 0.151626
Tiempo de update top: 7.393662
Cleanup Explorer Robot
RPlidar data acquisition thread [Finished]
Cleanup RPlidar
