[0. 0. 0. 0. 0. 0. 0. 0. 0. 0. 0. 0. 0. 0. 0. 0. 0. 0. 0. 0.]
[0. 0. 0. 0. 0. 0. 0. 0. 0. 0. 0. 0. 0. 0. 0. 0. 0. 0. 0. 0.]
[0. 0. 0. 0. 0. 0. 0. 0. 0. 1. 1. 0. 0. 0. 0. 0. 0. 0. 0. 0.]
[0. 0. 0. 0. 0. 0. 0. 0. 0. 1. 1. 0. 0. 0. 0. 0. 0. 0. 0. 0.]
[0. 0. 0. 0. 0. 0. 0. 0. 0. 0. 0. 0. 0. 0. 0. 0. 0. 0. 0. 0.]
[0. 0. 0. 0. 0. 0. 0. 0. 0. 0. 0. 0. 0. 0. 0. 0. 0. 0. 0. 0.]
[0. 0. 0. 0. 0. 0. 0. 0. 0. 0. 0. 0. 0. 0. 0. 0. 0. 0. 0. 0.]
[0. 0. 0. 0. 0. 0. 0. 0. 0. 0. 0. 0. 0. 0. 0. 0. 0. 0. 0. 0.]
[0. 0. 0. 0. 0. 0. 0. 0. 0. 0. 0. 0. 0. 0. 1. 1. 0. 0. 0. 0.]
[0. 0. 0. 0. 0. 0. 0. 0. 0. 0. 0. 0. 0. 0. 1. 1. 0. 0. 0. 0.]
[0. 0. 0. 0. 0. 0. 0. 0. 0. 0. 0. 0. 0. 0. 0. 0. 0. 0. 0. 0.]
[0. 0. 0. 0. 0. 0. 0. 0. 0. 0. 0. 0. 0. 0. 0. 0. 0. 0. 0. 0.]
[0. 0. 0. 0. 0. 0. 0. 0. 0. 0. 0. 0. 0. 0. 0. 0. 0. 0. 0. 0.]
[0. 0. 0. 0. 0. 0. 0. 0. 0. 0. 0. 0. 0. 0. 0. 0. 0. 0. 0. 0.]
[0. 0. 0. 0. 0. 0. 0. 0. 0. 0. 0. 0. 0. 0. 0. 0. 0. 0. 0. 0.]
[0. 0. 0. 0. 0. 0. 0. 0. 0. 0. 0. 0. 0. 0. 0. 0. 0. 0. 0. 0.]
[0. 0. 0. 0. 0. 0. 0. 0. 0. 0. 0. 0. 0. 0. 0. 0. 0. 0. 0. 0.]
[0. 0. 0. 0. 0. 0. 0. 0. 0. 0. 0. 0. 0. 0. 0. 0. 0. 0. 0. 0.]
[0. 0. 0. 0. 0. 0. 0. 0. 0. 0. 0. 0. 0. 0. 0. 0. 0. 0. 0. 0.]
[0. 0. 0. 0. 0. 0. 0. 0. 0. 0. 0. 0. 0. 0. 0. 0. 0. 0. 0. 0.]
Inicio: 0 0
Final:  19 19
{'model': 24, 'firmware': (1, 27), 'hardware': 5, 'serialnumber': 'CEF99AF2C1EA9FC2A2EB92F15D2A3C00'}
('Good', 0)
RPlidar data acquisition thread [Listening]
Array de particulas =  [[x=754.40 y=897.66 orient=4.0063], [x=470.38 y=592.91 orient=1.3759], [x=100.10 y=879.62 orient=1.2903], [x=734.83 y=976.60 orient=2.5209], [x=553.20 y=523.40 orient=4.1530], [x=52.740 y=329.31 orient=5.0614], [x=25.337 y=768.02 orient=1.6749], [x=10.068 y=10.571 orient=0.9509], [x=854.50 y=707.62 orient=1.7997], [x=83.598 y=562.80 orient=0.4878], [x=455.24 y=392.41 orient=4.5363], [x=409.11 y=197.59 orient=3.5867], [x=995.90 y=394.51 orient=4.0237], [x=639.10 y=342.40 orient=5.4999], [x=818.22 y=660.62 orient=5.7377], [x=401.55 y=744.38 orient=0.2428], [x=304.51 y=993.51 orient=1.4863], [x=177.78 y=536.51 orient=1.1716], [x=426.11 y=508.33 orient=2.8688], [x=981.26 y=876.56 orient=1.8145], [x=443.83 y=781.14 orient=0.6797], [x=616.94 y=361.13 orient=5.7171], [x=355.31 y=158.99 orient=5.6798], [x=874.38 y=263.04 orient=5.0192], [x=417.43 y=70.929 orient=0.2439], [x=672.90 y=906.46 orient=5.7838], [x=336.36 y=147.31 orient=3.3785], [x=596.42 y=727.04 orient=1.2909], [x=167.64 y=677.02 orient=4.4118], [x=826.74 y=284.21 orient=0.2723], [x=689.11 y=361.00 orient=3.0597], [x=442.48 y=915.06 orient=5.1300], [x=782.61 y=884.36 orient=0.0044], [x=476.91 y=389.51 orient=3.8708], [x=12.221 y=133.00 orient=2.8913], [x=0.6506 y=150.26 orient=5.4076], [x=103.68 y=160.38 orient=2.1230], [x=185.34 y=576.95 orient=2.4395], [x=844.76 y=492.10 orient=5.2568], [x=301.41 y=118.50 orient=1.2284], [x=770.70 y=257.53 orient=3.1710], [x=803.02 y=148.60 orient=4.2289], [x=251.39 y=652.27 orient=4.4441], [x=458.91 y=617.64 orient=2.9636], [x=39.046 y=367.07 orient=1.8338], [x=614.29 y=492.77 orient=0.3594], [x=401.06 y=254.28 orient=1.5316], [x=380.54 y=216.29 orient=1.8837], [x=915.16 y=719.93 orient=1.6889], [x=599.50 y=606.06 orient=4.1131], [x=633.70 y=615.46 orient=2.3376], [x=559.77 y=922.62 orient=5.0444], [x=614.13 y=217.62 orient=1.3912], [x=650.43 y=659.59 orient=6.1581], [x=495.75 y=239.71 orient=4.9595], [x=923.72 y=964.18 orient=0.5439], [x=408.43 y=627.91 orient=0.1267], [x=874.50 y=270.95 orient=5.2711], [x=863.80 y=716.88 orient=5.4812], [x=436.73 y=346.75 orient=2.6841], [x=621.00 y=834.01 orient=4.8649], [x=721.46 y=817.22 orient=4.7773], [x=101.83 y=384.15 orient=2.9166], [x=67.516 y=769.15 orient=1.8591], [x=16.698 y=404.51 orient=4.3094], [x=302.47 y=535.66 orient=4.9336], [x=29.679 y=19.007 orient=4.7543], [x=628.95 y=82.494 orient=1.0836], [x=506.20 y=242.85 orient=0.5838], [x=237.21 y=475.78 orient=5.6777], [x=657.84 y=136.12 orient=5.9776], [x=908.80 y=475.45 orient=5.9765], [x=803.68 y=805.63 orient=1.3977], [x=560.70 y=39.938 orient=4.9337], [x=595.40 y=327.42 orient=3.5721], [x=839.19 y=417.02 orient=0.2937], [x=378.67 y=622.68 orient=5.1968], [x=797.88 y=872.32 orient=0.0089], [x=695.57 y=989.21 orient=3.8928], [x=405.85 y=34.223 orient=4.5035], [x=244.27 y=127.69 orient=4.7392], [x=383.44 y=679.32 orient=5.4468], [x=141.08 y=698.71 orient=1.5230], [x=161.22 y=13.476 orient=6.2291], [x=345.09 y=758.09 orient=2.3236], [x=373.27 y=21.422 orient=5.7247], [x=859.04 y=66.357 orient=5.1121], [x=729.56 y=45.293 orient=3.3621], [x=222.43 y=617.51 orient=1.2902], [x=387.87 y=182.10 orient=0.7270], [x=642.74 y=364.27 orient=2.6252], [x=673.44 y=330.87 orient=1.1608], [x=535.04 y=488.40 orient=6.1510], [x=300.24 y=949.67 orient=2.3423], [x=371.72 y=945.92 orient=5.3129], [x=261.60 y=663.11 orient=0.5151], [x=588.02 y=487.65 orient=0.5376], [x=33.297 y=79.036 orient=2.3463], [x=976.69 y=281.16 orient=3.0126], [x=541.28 y=90.297 orient=4.0995], [x=396.90 y=224.91 orient=1.6216], [x=42.120 y=667.57 orient=1.4818], [x=569.06 y=119.79 orient=3.5407], [x=697.07 y=129.69 orient=4.6785], [x=743.82 y=694.03 orient=6.2252], [x=80.825 y=518.90 orient=0.3791], [x=212.42 y=632.74 orient=2.5828], [x=79.190 y=493.03 orient=2.4667], [x=214.87 y=500.44 orient=1.8496], [x=979.03 y=286.94 orient=6.1750], [x=141.01 y=759.23 orient=0.0097], [x=875.99 y=19.968 orient=4.8789], [x=347.94 y=691.99 orient=2.7963], [x=934.41 y=30.554 orient=2.0149], [x=484.94 y=344.02 orient=1.9297], [x=371.67 y=934.63 orient=5.0797], [x=150.12 y=642.89 orient=1.7829], [x=568.51 y=711.86 orient=4.7185], [x=895.99 y=665.02 orient=4.3417], [x=482.86 y=498.57 orient=3.6767], [x=492.95 y=619.00 orient=4.2416], [x=872.88 y=802.25 orient=1.1142], [x=17.957 y=284.83 orient=2.6012], [x=937.62 y=298.59 orient=3.9530], [x=503.17 y=392.27 orient=2.8696], [x=517.15 y=212.38 orient=6.0487], [x=511.14 y=738.33 orient=2.5445], [x=92.694 y=556.26 orient=3.4624], [x=313.43 y=621.14 orient=2.7968], [x=655.71 y=293.55 orient=1.4818], [x=5.7748 y=222.27 orient=1.9372], [x=97.326 y=304.66 orient=0.2312], [x=261.62 y=992.52 orient=4.6294], [x=318.13 y=701.95 orient=5.5284], [x=7.9426 y=198.46 orient=5.1681], [x=442.69 y=23.167 orient=4.8702], [x=865.56 y=731.17 orient=4.3939], [x=994.37 y=203.82 orient=2.5891], [x=180.75 y=108.47 orient=2.7976], [x=378.66 y=614.86 orient=3.7435], [x=397.88 y=164.97 orient=0.1572], [x=556.82 y=430.93 orient=2.9607], [x=690.95 y=517.95 orient=3.5385], [x=508.77 y=547.15 orient=0.5374], [x=911.35 y=746.38 orient=3.3735], [x=531.15 y=125.69 orient=0.9148], [x=263.67 y=847.38 orient=5.4199], [x=870.01 y=659.86 orient=6.1357], [x=423.75 y=265.26 orient=3.1049], [x=91.510 y=889.58 orient=5.9677], [x=501.81 y=230.06 orient=4.6858], [x=332.59 y=245.41 orient=3.2917], [x=315.69 y=734.27 orient=5.2695], [x=229.51 y=318.47 orient=0.7186], [x=982.42 y=527.28 orient=2.4236], [x=449.24 y=146.85 orient=1.1854], [x=374.69 y=387.73 orient=5.9249], [x=31.138 y=897.18 orient=3.7980], [x=958.77 y=518.60 orient=0.6243], [x=770.51 y=935.81 orient=3.1952], [x=652.46 y=607.95 orient=5.6125], [x=332.71 y=127.90 orient=6.1090], [x=193.01 y=119.57 orient=4.7488], [x=76.515 y=510.58 orient=5.5289], [x=408.45 y=775.05 orient=3.6125], [x=688.29 y=444.05 orient=4.1118], [x=35.822 y=689.73 orient=4.6423], [x=330.38 y=711.21 orient=0.7372], [x=180.73 y=493.70 orient=1.9582], [x=653.99 y=449.04 orient=0.6613], [x=181.01 y=244.88 orient=2.8800], [x=922.40 y=467.03 orient=3.6290], [x=205.43 y=561.45 orient=1.9864], [x=188.36 y=124.06 orient=0.9130], [x=940.49 y=881.06 orient=1.1999], [x=236.28 y=536.84 orient=0.2273], [x=93.952 y=816.56 orient=5.7947], [x=778.52 y=629.65 orient=0.5387], [x=393.97 y=327.14 orient=4.0466], [x=442.14 y=168.77 orient=4.1102], [x=353.75 y=577.32 orient=3.0076], [x=859.59 y=49.408 orient=1.5516], [x=812.33 y=699.86 orient=2.5190], [x=938.74 y=402.27 orient=4.5736], [x=950.00 y=853.21 orient=4.4263], [x=113.97 y=976.37 orient=3.2239], [x=60.875 y=773.90 orient=4.1508], [x=100.23 y=620.14 orient=0.1588], [x=383.30 y=210.80 orient=0.8502], [x=39.850 y=42.072 orient=5.6346], [x=404.15 y=388.10 orient=2.9135], [x=709.88 y=383.86 orient=5.4301], [x=576.79 y=66.986 orient=1.1089], [x=847.03 y=676.41 orient=1.4242], [x=587.63 y=572.89 orient=1.8487], [x=625.36 y=673.89 orient=4.8979], [x=503.60 y=535.61 orient=0.3963], [x=177.57 y=214.28 orient=5.5119], [x=576.61 y=916.19 orient=2.1225], [x=210.19 y=29.276 orient=1.3753]]
****************************
****     SELF TEST     *****
Motor:      ERROR
Accel data: OK
RPlidar:    OK
****************************
Tiempo de prediccion: 0.006889
Get SCAN
-- Tiempo de Rotacion: 0.002250
-- Tiempo de PrediccionLnmk: 0.000064
-- Tiempo de AsociccionLnmk: 0.010589
-- Tiempo de WeightLnmk: 0.000066
- Tiempo de update: 2.730263
- Tiempo de Norm: 0.001891
- Tiempo de Resample: 0.095327
Tiempo de update top: 2.827700
Tiempo de prediccion: 0.007017
Get SCAN
- Tiempo de update: 2.738481
- Tiempo de Norm: 0.001819
- Tiempo de Resample: 0.098095
Tiempo de update top: 2.838666
Tiempo de prediccion: 0.007402
Get SCAN
- Tiempo de update: 2.750342
- Tiempo de Norm: 0.001807
- Tiempo de Resample: 0.109001
Tiempo de update top: 2.861376
Tiempo de prediccion: 0.007325
Get SCAN
- Tiempo de update: 2.687208
- Tiempo de Norm: 0.001726
- Tiempo de Resample: 0.094284
Tiempo de update top: 2.783437
Tiempo de prediccion: 0.007300
Get SCAN
Tiempo de prediccion: 0.007276
Get SCAN
- Tiempo de update: 2.680099
- Tiempo de Norm: 0.002055
- Tiempo de Resample: 0.093411
Tiempo de update top: 2.776314
Tiempo de prediccion: 0.007355
Get SCAN
- Tiempo de update: 2.595015
- Tiempo de Norm: 0.001760
- Tiempo de Resample: 0.094532
Tiempo de update top: 2.691500
Tiempo de prediccion: 0.006924
Get SCAN
- Tiempo de update: 2.671959
- Tiempo de Norm: 0.001754
- Tiempo de Resample: 0.092946
Tiempo de update top: 2.766871
Cleanup Explorer Robot
RPlidar data acquisition thread [Finished]
Cleanup RPlidar
