[0. 0. 0. 0. 0. 0. 0. 0. 0. 0. 0. 0. 0. 0. 0. 0. 0. 0. 0. 0.]
[0. 0. 0. 1. 0. 0. 0. 0. 0. 0. 0. 0. 0. 0. 0. 0. 0. 0. 0. 0.]
[0. 0. 0. 0. 0. 0. 0. 0. 0. 1. 1. 0. 0. 0. 1. 0. 0. 1. 0. 0.]
[0. 0. 0. 0. 0. 0. 0. 0. 0. 1. 1. 0. 0. 0. 0. 0. 0. 0. 0. 0.]
[0. 0. 0. 0. 0. 0. 0. 0. 0. 0. 0. 0. 0. 0. 0. 0. 0. 0. 0. 0.]
[0. 1. 0. 0. 0. 0. 0. 0. 0. 0. 0. 0. 0. 0. 0. 1. 0. 0. 0. 0.]
[0. 0. 0. 0. 1. 0. 0. 0. 1. 0. 0. 0. 0. 0. 0. 0. 0. 0. 0. 0.]
[0. 0. 0. 0. 0. 0. 0. 0. 0. 0. 0. 0. 0. 0. 0. 0. 0. 0. 0. 0.]
[0. 0. 0. 0. 0. 0. 0. 0. 0. 0. 0. 0. 0. 0. 1. 1. 0. 0. 0. 0.]
[0. 0. 0. 0. 1. 0. 0. 0. 1. 0. 0. 0. 0. 0. 1. 1. 0. 0. 0. 0.]
[0. 0. 0. 0. 0. 0. 0. 0. 0. 0. 0. 0. 0. 0. 0. 0. 0. 0. 1. 0.]
[0. 1. 0. 0. 0. 0. 0. 1. 0. 0. 0. 0. 0. 0. 0. 0. 0. 0. 0. 0.]
[0. 0. 0. 0. 0. 0. 0. 0. 0. 0. 0. 0. 0. 0. 0. 0. 0. 0. 0. 0.]
[0. 0. 0. 0. 0. 0. 0. 0. 0. 0. 0. 1. 0. 0. 0. 0. 0. 0. 0. 0.]
[0. 0. 0. 0. 0. 0. 0. 0. 0. 0. 0. 0. 0. 0. 0. 0. 0. 0. 0. 0.]
[0. 0. 0. 0. 0. 0. 1. 0. 0. 0. 0. 0. 0. 0. 0. 0. 1. 0. 0. 0.]
[0. 0. 0. 0. 0. 0. 0. 0. 0. 0. 0. 0. 0. 0. 0. 0. 0. 0. 0. 0.]
[0. 0. 0. 0. 0. 0. 0. 0. 0. 0. 0. 1. 0. 0. 0. 0. 0. 0. 0. 0.]
[0. 0. 0. 0. 0. 0. 0. 0. 0. 0. 0. 0. 0. 0. 0. 0. 0. 0. 0. 0.]
[0. 0. 0. 0. 0. 0. 0. 0. 0. 0. 0. 0. 0. 0. 0. 0. 0. 0. 0. 0.]
Inicio: 0 0
Final:  19 19
{'model': 24, 'firmware': (1, 27), 'hardware': 5, 'serialnumber': 'CEF99AF2C1EA9FC2A2EB92F15D2A3C00'}
('Good', 0)
RPlidar data acquisition thread [Listening]
Array de particulas =  [[x=251.01 y=989.28 orient=3.4704], [x=735.40 y=918.10 orient=1.4335], [x=72.445 y=521.06 orient=2.4152], [x=160.14 y=545.75 orient=0.4889], [x=505.19 y=935.87 orient=2.9663], [x=666.63 y=916.70 orient=3.5492], [x=999.70 y=684.96 orient=3.3257], [x=800.82 y=556.55 orient=0.3628], [x=140.42 y=866.21 orient=3.0296], [x=872.01 y=5.3110 orient=4.9225], [x=502.97 y=119.25 orient=2.9166], [x=302.90 y=106.96 orient=4.1462], [x=831.04 y=996.89 orient=3.8259], [x=489.51 y=158.32 orient=4.4691], [x=369.57 y=242.58 orient=0.2755], [x=958.94 y=233.99 orient=1.4752], [x=711.61 y=899.15 orient=4.1834], [x=394.01 y=172.52 orient=1.0014], [x=830.85 y=138.80 orient=0.7060], [x=61.779 y=805.02 orient=5.4865], [x=253.96 y=631.46 orient=2.0848], [x=661.12 y=120.52 orient=3.8565], [x=433.61 y=528.41 orient=4.7432], [x=860.07 y=339.48 orient=4.6732], [x=818.92 y=291.95 orient=1.9458], [x=240.57 y=821.62 orient=2.0303], [x=140.24 y=452.35 orient=3.1647], [x=196.35 y=485.94 orient=3.8327], [x=723.86 y=121.33 orient=1.7190], [x=983.82 y=348.12 orient=1.1243], [x=102.49 y=527.16 orient=1.8798], [x=621.57 y=711.11 orient=1.7244], [x=422.64 y=321.77 orient=2.5875], [x=922.87 y=996.42 orient=4.3123], [x=680.06 y=139.83 orient=3.4388], [x=930.46 y=634.30 orient=2.8198], [x=984.87 y=86.739 orient=3.9416], [x=987.14 y=575.23 orient=0.6252], [x=444.59 y=558.14 orient=1.0954], [x=949.24 y=379.57 orient=4.2651], [x=411.76 y=947.20 orient=5.7654], [x=765.92 y=501.34 orient=6.1580], [x=702.46 y=382.94 orient=0.7571], [x=414.37 y=87.999 orient=2.3490], [x=908.54 y=271.30 orient=1.0033], [x=300.19 y=748.72 orient=5.9664], [x=477.29 y=194.92 orient=1.4799], [x=54.705 y=753.36 orient=4.7204], [x=482.27 y=669.19 orient=5.2457], [x=670.28 y=554.03 orient=4.3711], [x=414.28 y=901.39 orient=3.2645], [x=41.055 y=483.04 orient=2.1743], [x=312.24 y=235.23 orient=4.5926], [x=497.78 y=731.19 orient=5.6048], [x=705.12 y=735.22 orient=2.5210], [x=875.40 y=653.82 orient=4.3555], [x=984.14 y=625.25 orient=3.7774], [x=757.77 y=807.62 orient=4.0222], [x=497.64 y=648.83 orient=0.5568], [x=953.61 y=81.673 orient=4.3004], [x=205.08 y=153.60 orient=0.7067], [x=521.11 y=937.64 orient=1.0304], [x=874.57 y=503.10 orient=2.0412], [x=378.94 y=896.08 orient=1.5734], [x=253.78 y=641.60 orient=3.6802], [x=149.61 y=474.15 orient=5.6937], [x=252.52 y=203.66 orient=1.3958], [x=152.58 y=434.57 orient=3.1495], [x=382.44 y=428.43 orient=0.1455], [x=83.370 y=50.757 orient=1.4912], [x=738.82 y=385.35 orient=1.2111], [x=856.81 y=67.499 orient=2.7993], [x=839.37 y=876.66 orient=1.0201], [x=337.28 y=998.15 orient=0.3421], [x=247.26 y=591.86 orient=2.8452], [x=643.52 y=624.00 orient=1.0265], [x=900.08 y=395.10 orient=4.8121], [x=662.06 y=77.285 orient=0.0099], [x=117.94 y=310.80 orient=0.1201], [x=572.77 y=303.34 orient=3.4439], [x=259.06 y=153.58 orient=5.1314], [x=709.25 y=909.54 orient=1.9871], [x=114.32 y=216.99 orient=1.2539], [x=212.10 y=143.44 orient=1.4006], [x=737.40 y=178.76 orient=2.6789], [x=938.45 y=726.89 orient=1.4607], [x=791.02 y=464.87 orient=2.6894], [x=572.28 y=790.19 orient=5.7652], [x=760.88 y=899.27 orient=4.8721], [x=2.9422 y=120.72 orient=0.3386], [x=943.18 y=833.87 orient=5.7124], [x=609.85 y=688.20 orient=2.5742], [x=738.85 y=71.931 orient=2.2197], [x=858.24 y=170.30 orient=1.6004], [x=467.89 y=99.449 orient=3.6501], [x=182.64 y=509.03 orient=0.7896], [x=118.18 y=937.70 orient=3.6212], [x=102.51 y=821.90 orient=0.1022], [x=345.94 y=340.33 orient=0.2061], [x=604.34 y=554.85 orient=5.4569], [x=683.83 y=662.20 orient=4.7188], [x=482.12 y=401.52 orient=1.2044], [x=472.48 y=342.45 orient=2.0222], [x=81.623 y=665.64 orient=2.7115], [x=681.52 y=716.42 orient=4.3405], [x=734.36 y=676.30 orient=3.5288], [x=816.98 y=903.36 orient=3.2073], [x=897.93 y=384.27 orient=6.0099], [x=594.78 y=275.09 orient=4.5024], [x=734.74 y=463.65 orient=6.2747], [x=824.04 y=678.95 orient=0.3289], [x=274.75 y=407.28 orient=2.4538], [x=149.93 y=66.747 orient=3.0939], [x=551.38 y=357.30 orient=5.7901], [x=457.99 y=988.10 orient=1.3923], [x=119.42 y=798.43 orient=5.5284], [x=91.894 y=468.87 orient=2.6954], [x=808.17 y=229.25 orient=0.7995], [x=190.64 y=178.76 orient=5.3026], [x=739.47 y=563.88 orient=0.6526], [x=647.25 y=644.28 orient=3.6356], [x=50.617 y=295.41 orient=5.4478], [x=69.721 y=181.43 orient=2.8236], [x=824.10 y=504.87 orient=0.9813], [x=862.04 y=5.0208 orient=0.7014], [x=532.62 y=808.12 orient=6.2826], [x=230.91 y=157.04 orient=4.5802], [x=537.26 y=587.12 orient=6.1021], [x=565.11 y=577.41 orient=4.6811], [x=471.24 y=573.16 orient=0.2596], [x=894.21 y=966.68 orient=1.3124], [x=94.361 y=270.14 orient=0.5470], [x=901.64 y=997.03 orient=4.6340], [x=924.58 y=998.64 orient=4.0395], [x=740.65 y=312.70 orient=4.4393], [x=583.81 y=438.21 orient=0.0712], [x=536.03 y=355.68 orient=5.5423], [x=510.53 y=39.058 orient=0.6067], [x=338.08 y=659.41 orient=1.5991], [x=791.11 y=563.06 orient=5.6060], [x=39.555 y=869.12 orient=0.3864], [x=908.81 y=766.36 orient=2.1563], [x=785.64 y=903.55 orient=0.0288], [x=742.88 y=400.10 orient=0.8763], [x=371.61 y=44.348 orient=0.7597], [x=651.34 y=26.093 orient=5.5565], [x=626.59 y=615.98 orient=2.6068], [x=546.62 y=25.057 orient=0.2331], [x=246.49 y=923.23 orient=2.2116], [x=754.70 y=454.18 orient=4.2259], [x=658.35 y=539.76 orient=2.6050], [x=250.14 y=401.48 orient=1.6293], [x=191.19 y=784.58 orient=2.8526], [x=545.22 y=924.05 orient=3.3552], [x=859.41 y=905.25 orient=3.1270], [x=795.77 y=269.26 orient=4.2088], [x=620.56 y=957.57 orient=3.1211], [x=152.10 y=86.416 orient=2.7912], [x=44.643 y=381.02 orient=5.1110], [x=400.38 y=218.11 orient=2.2678], [x=13.674 y=201.21 orient=3.6535], [x=968.06 y=350.01 orient=0.3166], [x=187.87 y=29.413 orient=5.0573], [x=228.65 y=703.18 orient=2.7043], [x=39.788 y=476.91 orient=4.1771], [x=451.97 y=623.27 orient=6.1259], [x=157.53 y=887.70 orient=0.4584], [x=840.85 y=884.39 orient=5.6281], [x=310.71 y=65.828 orient=6.0707], [x=352.67 y=394.33 orient=0.8544], [x=969.18 y=764.55 orient=1.9767], [x=456.03 y=670.88 orient=0.9741], [x=624.39 y=927.35 orient=3.3132], [x=243.38 y=86.989 orient=1.6705], [x=328.70 y=487.00 orient=0.4198], [x=981.04 y=186.74 orient=2.5786], [x=714.41 y=761.24 orient=0.5537], [x=281.57 y=694.57 orient=4.5518], [x=866.80 y=753.04 orient=2.6834], [x=177.39 y=715.85 orient=4.8516], [x=178.29 y=146.54 orient=1.2748], [x=606.62 y=184.27 orient=2.3531], [x=781.30 y=292.05 orient=1.7355], [x=588.44 y=589.28 orient=0.6891], [x=749.77 y=379.37 orient=3.7772], [x=856.79 y=796.52 orient=3.0559], [x=397.30 y=554.82 orient=1.9849], [x=20.142 y=690.25 orient=4.0391], [x=740.24 y=627.51 orient=1.1206], [x=166.16 y=172.54 orient=1.6917], [x=588.27 y=671.77 orient=3.3305], [x=54.326 y=994.62 orient=0.7577], [x=438.45 y=194.47 orient=4.1483], [x=887.30 y=787.44 orient=6.1794], [x=341.92 y=662.81 orient=6.2400], [x=186.52 y=0.7350 orient=0.8516], [x=603.60 y=994.30 orient=2.5665], [x=762.85 y=549.39 orient=5.7510], [x=301.51 y=125.85 orient=0.8101], [x=656.93 y=30.790 orient=4.6233], [x=427.16 y=960.84 orient=1.9356], [x=285.73 y=112.58 orient=4.6154], [x=555.22 y=524.96 orient=1.9542], [x=513.87 y=39.039 orient=2.3072], [x=472.87 y=198.61 orient=4.9229], [x=510.76 y=452.12 orient=5.0376], [x=325.02 y=221.39 orient=3.7951], [x=502.49 y=10.361 orient=3.3130], [x=748.13 y=254.71 orient=3.1684], [x=222.13 y=30.027 orient=0.6557], [x=507.04 y=909.25 orient=5.2770], [x=28.355 y=447.38 orient=5.6435], [x=867.47 y=702.66 orient=1.2930], [x=574.63 y=5.6035 orient=4.1099], [x=296.25 y=47.798 orient=1.2904], [x=655.89 y=148.11 orient=1.6667], [x=354.94 y=323.60 orient=3.2027], [x=195.10 y=312.05 orient=2.0861], [x=718.44 y=212.19 orient=0.3102], [x=661.98 y=712.62 orient=4.9377], [x=442.22 y=842.85 orient=0.8933], [x=966.10 y=402.62 orient=2.6007], [x=594.90 y=613.27 orient=0.7565], [x=597.76 y=905.47 orient=1.9777], [x=951.12 y=114.92 orient=2.3751], [x=485.89 y=801.67 orient=4.1492], [x=79.641 y=31.921 orient=3.0055], [x=811.00 y=780.34 orient=1.1833], [x=97.207 y=401.21 orient=4.0219], [x=996.67 y=616.17 orient=2.6320], [x=450.05 y=733.99 orient=1.7131], [x=957.19 y=825.11 orient=4.1843], [x=48.747 y=416.17 orient=4.3846], [x=213.72 y=274.26 orient=3.9310], [x=18.868 y=448.62 orient=3.6148], [x=130.60 y=499.73 orient=5.2723], [x=64.006 y=804.27 orient=2.5382], [x=694.91 y=34.476 orient=3.1507], [x=221.64 y=920.54 orient=4.9919], [x=595.45 y=386.09 orient=2.5940], [x=656.69 y=268.48 orient=3.7629], [x=347.60 y=673.91 orient=4.8008], [x=315.71 y=735.16 orient=3.8999], [x=215.28 y=913.20 orient=1.3926], [x=697.70 y=101.31 orient=5.2108], [x=500.43 y=227.27 orient=0.6790], [x=536.24 y=500.32 orient=1.4168], [x=300.38 y=171.81 orient=2.8399], [x=154.51 y=612.58 orient=6.1431], [x=656.66 y=651.55 orient=1.1235], [x=700.22 y=867.90 orient=0.9493], [x=487.96 y=144.12 orient=1.0742], [x=100.36 y=704.99 orient=1.7757], [x=2.3327 y=413.29 orient=5.2494], [x=355.53 y=989.94 orient=2.9490], [x=550.55 y=255.94 orient=0.5160], [x=672.91 y=816.29 orient=1.2557], [x=97.868 y=916.27 orient=1.0272], [x=596.18 y=698.01 orient=3.6607], [x=198.26 y=607.18 orient=4.4090], [x=168.27 y=386.37 orient=2.0579], [x=660.57 y=92.028 orient=5.4909], [x=161.03 y=429.17 orient=2.9079], [x=114.01 y=625.72 orient=0.2052], [x=660.81 y=415.21 orient=1.2109], [x=575.08 y=787.69 orient=1.7345], [x=445.60 y=469.77 orient=1.1873], [x=395.61 y=10.613 orient=2.0563], [x=625.29 y=347.29 orient=1.8954], [x=477.64 y=596.61 orient=1.8806], [x=196.72 y=89.952 orient=5.3241], [x=415.41 y=679.93 orient=5.0696], [x=405.87 y=533.94 orient=3.2883], [x=142.77 y=182.66 orient=2.7496], [x=402.84 y=119.37 orient=3.4570], [x=367.75 y=912.93 orient=2.1314], [x=464.03 y=995.48 orient=3.1891], [x=853.78 y=932.40 orient=4.6194], [x=354.53 y=989.49 orient=2.4619], [x=744.02 y=503.96 orient=0.6110], [x=701.34 y=349.22 orient=0.3645], [x=484.67 y=409.77 orient=3.5443], [x=899.28 y=428.51 orient=1.4921], [x=963.94 y=816.56 orient=2.5882], [x=554.99 y=605.21 orient=3.1048], [x=192.02 y=143.73 orient=1.2770], [x=976.28 y=499.01 orient=4.6172], [x=536.48 y=723.53 orient=2.0866], [x=951.95 y=197.38 orient=3.9495], [x=374.20 y=135.18 orient=2.9623], [x=545.54 y=640.72 orient=0.5764], [x=500.28 y=897.91 orient=5.8704], [x=103.51 y=337.05 orient=5.3709], [x=761.95 y=608.19 orient=4.9786], [x=870.08 y=629.63 orient=3.1605], [x=734.70 y=909.42 orient=3.5885], [x=440.81 y=395.63 orient=4.8318], [x=274.22 y=685.94 orient=5.7149], [x=755.95 y=79.915 orient=5.5336], [x=913.28 y=248.81 orient=5.4385], [x=719.36 y=746.04 orient=1.6617], [x=55.908 y=687.85 orient=3.0166], [x=6.3314 y=427.17 orient=3.4001], [x=672.28 y=601.41 orient=5.0358], [x=984.76 y=731.56 orient=3.2051], [x=603.97 y=242.58 orient=4.6603], [x=130.34 y=770.69 orient=2.9574], [x=787.35 y=411.53 orient=2.8578], [x=384.28 y=652.40 orient=4.0406], [x=479.29 y=57.786 orient=1.0819], [x=844.39 y=651.54 orient=4.9177], [x=411.39 y=871.07 orient=3.6655], [x=624.32 y=585.79 orient=0.6146], [x=451.43 y=970.94 orient=2.9269], [x=406.66 y=171.96 orient=2.2855], [x=913.86 y=803.80 orient=1.4264], [x=619.24 y=768.80 orient=5.2580], [x=95.107 y=0.5930 orient=5.3204], [x=330.50 y=950.45 orient=4.8316], [x=365.56 y=29.745 orient=2.4484], [x=70.346 y=180.67 orient=1.6158], [x=905.08 y=721.64 orient=1.0363], [x=842.84 y=227.24 orient=4.0427], [x=483.34 y=110.70 orient=3.2493], [x=454.07 y=72.859 orient=3.5532], [x=424.04 y=21.547 orient=0.8497], [x=234.81 y=569.05 orient=0.1077], [x=451.72 y=111.90 orient=4.3930], [x=305.06 y=203.61 orient=0.5603], [x=313.72 y=384.01 orient=5.0909], [x=852.32 y=61.034 orient=1.5808], [x=127.48 y=693.12 orient=5.2240], [x=849.78 y=972.51 orient=3.7687], [x=444.94 y=512.99 orient=1.1118], [x=110.79 y=297.89 orient=6.0600], [x=103.30 y=469.87 orient=0.8560], [x=218.36 y=465.48 orient=3.5821], [x=353.83 y=969.58 orient=3.9320], [x=850.66 y=920.38 orient=4.1407], [x=61.939 y=363.12 orient=0.0370], [x=713.53 y=508.81 orient=0.3802], [x=769.14 y=428.40 orient=5.3810], [x=611.90 y=787.27 orient=2.5133], [x=457.26 y=7.8843 orient=5.1002], [x=137.45 y=734.41 orient=1.3809], [x=87.899 y=826.29 orient=3.4551], [x=107.55 y=126.23 orient=0.2716], [x=607.93 y=728.34 orient=2.2789], [x=998.90 y=56.785 orient=5.3361], [x=953.52 y=640.72 orient=1.5704], [x=439.96 y=988.11 orient=5.8502], [x=275.68 y=334.66 orient=5.6881], [x=144.75 y=393.01 orient=0.9254], [x=476.01 y=102.17 orient=2.6931], [x=942.78 y=724.67 orient=4.4066], [x=898.12 y=700.59 orient=1.4390], [x=829.15 y=154.85 orient=5.2530], [x=300.61 y=767.40 orient=4.3384], [x=805.06 y=259.88 orient=4.7780], [x=442.71 y=833.20 orient=4.8831], [x=78.997 y=442.09 orient=4.3232], [x=80.990 y=242.12 orient=5.5767], [x=491.31 y=922.55 orient=1.2643], [x=128.61 y=647.37 orient=3.0929], [x=721.36 y=889.55 orient=1.2006], [x=932.31 y=379.27 orient=2.4595], [x=439.74 y=957.36 orient=1.1770], [x=681.92 y=133.58 orient=0.8173], [x=90.658 y=4.4161 orient=1.7537], [x=310.79 y=213.98 orient=4.4351], [x=444.94 y=929.44 orient=1.0308], [x=306.35 y=842.02 orient=4.2776], [x=630.23 y=627.53 orient=1.6261], [x=302.05 y=891.89 orient=0.1856], [x=951.21 y=892.07 orient=1.3060], [x=291.09 y=214.60 orient=3.0990], [x=952.35 y=470.06 orient=4.9981], [x=154.50 y=858.73 orient=2.8753], [x=305.51 y=369.68 orient=1.5413], [x=593.90 y=867.16 orient=4.9061], [x=822.48 y=557.80 orient=5.8206], [x=654.49 y=156.31 orient=3.3840], [x=98.691 y=768.15 orient=3.0948], [x=779.14 y=627.99 orient=0.4567], [x=441.62 y=879.52 orient=2.9684], [x=250.99 y=347.86 orient=4.5778], [x=997.82 y=116.36 orient=0.2393], [x=100.25 y=606.09 orient=1.0101], [x=349.98 y=599.51 orient=3.0316], [x=766.77 y=491.95 orient=6.2701], [x=126.26 y=446.98 orient=4.7994], [x=387.64 y=207.60 orient=5.6762], [x=546.17 y=16.417 orient=5.9802], [x=681.57 y=325.70 orient=6.2092], [x=593.53 y=968.95 orient=6.0474], [x=936.92 y=530.24 orient=0.5333], [x=380.54 y=181.14 orient=4.3577], [x=772.85 y=969.59 orient=3.8405], [x=46.260 y=224.18 orient=2.7047], [x=447.69 y=941.12 orient=1.5325]]
****************************
****     SELF TEST     *****
Motor:      ERROR
Accel data: OK
RPlidar:    OK
****************************
Tiempo de prediccion: 0.014600
Get SCAN
-- Tiempo de Rotacion: 0.002303
-- Tiempo de PrediccionLnmk: 0.000179
-- Tiempo de AsociccionLnmk: 0.029401
-- Tiempo de WeightLnmk: 0.000230
- Tiempo de update: 13.631142
- Tiempo de Norm: 0.003452
- Tiempo de Resample: 0.345609
Tiempo de update top: 13.980453
Tiempo de prediccion: 0.013709
Get SCAN
-- Tiempo de Rotacion: 0.002673
-- Tiempo de PrediccionLnmk: 0.000194
-- Tiempo de AsociccionLnmk: 0.029076
-- Tiempo de WeightLnmk: 0.000803
-- Tiempo de Rotacion: 0.002643
-- Tiempo de PrediccionLnmk: 0.000176
-- Tiempo de AsociccionLnmk: 0.029205
-- Tiempo de WeightLnmk: 0.000144
-- Tiempo de Rotacion: 0.002353
-- Tiempo de PrediccionLnmk: 0.000177
-- Tiempo de AsociccionLnmk: 0.029675
-- Tiempo de WeightLnmk: 0.000146
- Tiempo de update: 13.491964
- Tiempo de Norm: 0.004028
- Tiempo de Resample: 0.349351
Tiempo de update top: 13.845825
Tiempo de prediccion: 0.013995
Get SCAN
-- Tiempo de Rotacion: 0.002913
-- Tiempo de PrediccionLnmk: 0.000181
-- Tiempo de AsociccionLnmk: 0.029266
-- Tiempo de WeightLnmk: 0.000145
-- Tiempo de Rotacion: 0.002787
-- Tiempo de PrediccionLnmk: 0.000208
-- Tiempo de AsociccionLnmk: 0.030155
-- Tiempo de WeightLnmk: 0.000153
-- Tiempo de Rotacion: 0.002862
-- Tiempo de PrediccionLnmk: 0.000184
-- Tiempo de AsociccionLnmk: 0.029899
-- Tiempo de WeightLnmk: 0.000155
-- Tiempo de Rotacion: 0.002773
-- Tiempo de PrediccionLnmk: 0.000185
-- Tiempo de AsociccionLnmk: 0.029563
-- Tiempo de WeightLnmk: 0.000154
- Tiempo de update: 13.711325
- Tiempo de Norm: 0.004251
- Tiempo de Resample: 0.355934
Tiempo de update top: 14.071915
Tiempo de prediccion: 0.016355
Get SCAN
-- Tiempo de Rotacion: 0.004057
-- Tiempo de PrediccionLnmk: 0.000223
-- Tiempo de AsociccionLnmk: 0.032130
-- Tiempo de WeightLnmk: 0.000165
-- Tiempo de Rotacion: 0.002316
-- Tiempo de PrediccionLnmk: 0.000174
-- Tiempo de AsociccionLnmk: 0.029045
-- Tiempo de WeightLnmk: 0.000148
-- Tiempo de Rotacion: 0.002552
-- Tiempo de PrediccionLnmk: 0.000558
-- Tiempo de AsociccionLnmk: 0.033507
-- Tiempo de WeightLnmk: 0.000347
-- Tiempo de Rotacion: 0.002352
-- Tiempo de PrediccionLnmk: 0.000184
-- Tiempo de AsociccionLnmk: 0.029625
-- Tiempo de WeightLnmk: 0.000150
- Tiempo de update: 13.636171
- Tiempo de Norm: 0.004030
- Tiempo de Resample: 0.341584
Tiempo de update top: 13.982075
Tiempo de prediccion: 0.013661
Get SCAN
Tiempo de prediccion: 0.013970
Get SCAN
-- Tiempo de Rotacion: 0.002491
-- Tiempo de PrediccionLnmk: 0.000211
-- Tiempo de AsociccionLnmk: 0.031380
-- Tiempo de WeightLnmk: 0.000147
-- Tiempo de Rotacion: 0.002381
-- Tiempo de PrediccionLnmk: 0.000182
-- Tiempo de AsociccionLnmk: 0.030889
-- Tiempo de WeightLnmk: 0.000196
- Tiempo de update: 13.689353
- Tiempo de Norm: 0.003879
- Tiempo de Resample: 0.341654
Tiempo de update top: 14.035149
Tiempo de prediccion: 0.014045
Get SCAN
-- Tiempo de Rotacion: 0.002387
-- Tiempo de PrediccionLnmk: 0.000176
-- Tiempo de AsociccionLnmk: 0.030699
-- Tiempo de WeightLnmk: 0.000148
- Tiempo de update: 13.681008
- Tiempo de Norm: 0.004347
- Tiempo de Resample: 0.451708
Tiempo de update top: 14.137746
Tiempo de prediccion: 0.013721
Get SCAN
-- Tiempo de Rotacion: 0.002361
-- Tiempo de PrediccionLnmk: 0.000172
-- Tiempo de AsociccionLnmk: 0.029294
-- Tiempo de WeightLnmk: 0.000163
- Tiempo de update: 13.627874
- Tiempo de Norm: 0.003886
- Tiempo de Resample: 0.340395
Tiempo de update top: 13.972417
Cleanup Explorer Robot
RPlidar data acquisition thread [Finished]
Cleanup RPlidar
