[0. 0. 0. 0. 0. 0. 0. 0. 0. 0. 0. 0. 0. 0. 0. 0. 0. 0. 0. 0.]
[0. 0. 0. 0. 0. 0. 0. 0. 0. 0. 0. 0. 0. 0. 0. 0. 0. 0. 0. 0.]
[0. 0. 0. 0. 0. 0. 0. 0. 0. 1. 1. 0. 0. 0. 0. 0. 0. 0. 0. 0.]
[0. 0. 0. 0. 0. 0. 0. 0. 0. 1. 1. 0. 0. 0. 0. 0. 0. 0. 0. 0.]
[0. 0. 0. 0. 0. 0. 0. 0. 0. 0. 0. 0. 0. 0. 0. 0. 0. 0. 0. 0.]
[0. 0. 0. 0. 0. 0. 0. 0. 0. 0. 0. 0. 0. 0. 0. 0. 0. 0. 0. 0.]
[0. 0. 0. 0. 0. 0. 0. 0. 0. 0. 0. 0. 0. 0. 0. 0. 0. 0. 0. 0.]
[0. 0. 0. 0. 0. 0. 0. 0. 0. 0. 0. 0. 0. 0. 0. 0. 0. 0. 0. 0.]
[0. 0. 0. 0. 0. 0. 0. 0. 0. 0. 0. 0. 0. 0. 1. 1. 0. 0. 0. 0.]
[0. 0. 0. 0. 0. 0. 0. 0. 0. 0. 0. 0. 0. 0. 1. 1. 0. 0. 0. 0.]
[0. 0. 0. 0. 0. 0. 0. 0. 0. 0. 0. 0. 0. 0. 0. 0. 0. 0. 0. 0.]
[0. 0. 0. 0. 0. 0. 0. 0. 0. 0. 0. 0. 0. 0. 0. 0. 0. 0. 0. 0.]
[0. 0. 0. 0. 0. 0. 0. 0. 0. 0. 0. 0. 0. 0. 0. 0. 0. 0. 0. 0.]
[0. 0. 0. 0. 0. 0. 0. 0. 0. 0. 0. 0. 0. 0. 0. 0. 0. 0. 0. 0.]
[0. 0. 0. 0. 0. 0. 0. 0. 0. 0. 0. 0. 0. 0. 0. 0. 0. 0. 0. 0.]
[0. 0. 0. 0. 0. 0. 0. 0. 0. 0. 0. 0. 0. 0. 0. 0. 0. 0. 0. 0.]
[0. 0. 0. 0. 0. 0. 0. 0. 0. 0. 0. 0. 0. 0. 0. 0. 0. 0. 0. 0.]
[0. 0. 0. 0. 0. 0. 0. 0. 0. 0. 0. 0. 0. 0. 0. 0. 0. 0. 0. 0.]
[0. 0. 0. 0. 0. 0. 0. 0. 0. 0. 0. 0. 0. 0. 0. 0. 0. 0. 0. 0.]
[0. 0. 0. 0. 0. 0. 0. 0. 0. 0. 0. 0. 0. 0. 0. 0. 0. 0. 0. 0.]
Inicio: 0 0
Final:  19 19
{'model': 24, 'firmware': (1, 27), 'hardware': 5, 'serialnumber': 'CEF99AF2C1EA9FC2A2EB92F15D2A3C00'}
('Good', 0)
RPlidar data acquisition thread [Listening]
Array de particulas =  [[x=886.14 y=491.71 orient=2.9475], [x=346.31 y=474.00 orient=5.4312], [x=398.94 y=548.75 orient=5.0448], [x=320.05 y=240.04 orient=2.3470], [x=932.20 y=240.04 orient=0.1051], [x=127.24 y=625.45 orient=4.6425], [x=239.50 y=95.743 orient=2.1911], [x=317.78 y=178.49 orient=0.7277], [x=991.16 y=55.340 orient=1.1111], [x=642.82 y=982.33 orient=3.2524], [x=90.687 y=523.91 orient=3.0493], [x=359.73 y=815.92 orient=3.5805], [x=458.60 y=37.795 orient=2.6016], [x=159.78 y=926.98 orient=4.9899], [x=546.74 y=649.98 orient=0.4099], [x=748.46 y=17.645 orient=5.9206], [x=984.25 y=490.60 orient=6.0420], [x=264.34 y=543.82 orient=1.9087], [x=597.75 y=466.36 orient=3.3690], [x=547.13 y=39.408 orient=2.7546], [x=971.02 y=660.37 orient=2.8204], [x=384.99 y=918.29 orient=4.3476], [x=799.85 y=311.45 orient=5.3092], [x=37.727 y=308.44 orient=0.1702], [x=928.21 y=614.69 orient=3.3846], [x=663.79 y=160.17 orient=3.5899], [x=939.42 y=755.49 orient=5.6185], [x=547.46 y=954.87 orient=2.0797], [x=215.18 y=55.107 orient=2.2545], [x=317.91 y=967.49 orient=5.4421]]
****************************
****     SELF TEST     *****
Motor:      ERROR
Accel data: OK
****************************
Tiempo de prediccion: 0.001142
Get SCAN
-- Tiempo de Rotacion: 0.002254
-- Tiempo de PrediccionLnmk: 0.000064
-- Tiempo de AsociccionLnmk: 0.011163
-- Tiempo de WeightLnmk: 0.000079
- Tiempo de update: 0.459398
- Tiempo de Norm: 0.000297
- Tiempo de Resample: 0.014179
Tiempo de update top: 0.474091
Tiempo de prediccion: 0.001087
Get SCAN
-- Tiempo de Rotacion: 0.002701
-- Tiempo de PrediccionLnmk: 0.000070
-- Tiempo de AsociccionLnmk: 0.009969
-- Tiempo de WeightLnmk: 0.000066
- Tiempo de update: 0.391574
- Tiempo de Norm: 0.000371
- Tiempo de Resample: 0.013549
Tiempo de update top: 0.405668
Tiempo de prediccion: 0.001084
Get SCAN
- Tiempo de update: 0.418828
- Tiempo de Norm: 0.000285
- Tiempo de Resample: 0.013267
Tiempo de update top: 0.432550
Tiempo de prediccion: 0.001517
Get SCAN
- Tiempo de update: 0.401733
- Tiempo de Norm: 0.000273
- Tiempo de Resample: 0.013282
Tiempo de update top: 0.415446
Tiempo de prediccion: 0.001113
Get SCAN
- Tiempo de update: 0.437953
- Tiempo de Norm: 0.000269
- Tiempo de Resample: 0.013281
Tiempo de update top: 0.451652
Tiempo de prediccion: 0.001129
Get SCAN
- Tiempo de update: 0.446678
- Tiempo de Norm: 0.000288
- Tiempo de Resample: 0.013447
Tiempo de update top: 0.460582
Tiempo de prediccion: 0.001039
Get SCAN
- Tiempo de update: 0.444931
- Tiempo de Norm: 0.000272
- Tiempo de Resample: 0.013412
Tiempo de update top: 0.458786
Tiempo de prediccion: 0.001042
Get SCAN
- Tiempo de update: 0.387974
- Tiempo de Norm: 0.000374
- Tiempo de Resample: 0.014158
Tiempo de update top: 0.402743
Cleanup Explorer Robot
RPlidar data acquisition thread [Finished]
Cleanup RPlidar
