[0. 0. 0. 0. 0. 0. 0. 0. 0. 0. 0. 0. 0. 0. 0. 0. 0. 0. 0. 0.]
[0. 0. 0. 0. 0. 0. 0. 0. 0. 0. 0. 0. 0. 0. 0. 0. 0. 0. 0. 0.]
[0. 0. 0. 0. 0. 0. 0. 0. 0. 1. 1. 0. 0. 0. 0. 0. 0. 0. 0. 0.]
[0. 0. 0. 0. 0. 0. 0. 0. 0. 1. 1. 0. 0. 0. 0. 0. 0. 0. 0. 0.]
[0. 0. 0. 0. 0. 0. 0. 0. 0. 0. 0. 0. 0. 0. 0. 0. 0. 0. 0. 0.]
[0. 0. 0. 0. 0. 0. 0. 0. 0. 0. 0. 0. 0. 0. 0. 0. 0. 0. 0. 0.]
[0. 0. 0. 0. 0. 0. 0. 0. 0. 0. 0. 0. 0. 0. 0. 0. 0. 0. 0. 0.]
[0. 0. 0. 0. 0. 0. 0. 0. 0. 0. 0. 0. 0. 0. 0. 0. 0. 0. 0. 0.]
[0. 0. 0. 0. 0. 0. 0. 0. 0. 0. 0. 0. 0. 0. 1. 1. 0. 0. 0. 0.]
[0. 0. 0. 0. 0. 0. 0. 0. 0. 0. 0. 0. 0. 0. 1. 1. 0. 0. 0. 0.]
[0. 0. 0. 0. 0. 0. 0. 0. 0. 0. 0. 0. 0. 0. 0. 0. 0. 0. 0. 0.]
[0. 0. 0. 0. 0. 0. 0. 0. 0. 0. 0. 0. 0. 0. 0. 0. 0. 0. 0. 0.]
[0. 0. 0. 0. 0. 0. 0. 0. 0. 0. 0. 0. 0. 0. 0. 0. 0. 0. 0. 0.]
[0. 0. 0. 0. 0. 0. 0. 0. 0. 0. 0. 0. 0. 0. 0. 0. 0. 0. 0. 0.]
[0. 0. 0. 0. 0. 0. 0. 0. 0. 0. 0. 0. 0. 0. 0. 0. 0. 0. 0. 0.]
[0. 0. 0. 0. 0. 0. 0. 0. 0. 0. 0. 0. 0. 0. 0. 0. 0. 0. 0. 0.]
[0. 0. 0. 0. 0. 0. 0. 0. 0. 0. 0. 0. 0. 0. 0. 0. 0. 0. 0. 0.]
[0. 0. 0. 0. 0. 0. 0. 0. 0. 0. 0. 0. 0. 0. 0. 0. 0. 0. 0. 0.]
[0. 0. 0. 0. 0. 0. 0. 0. 0. 0. 0. 0. 0. 0. 0. 0. 0. 0. 0. 0.]
[0. 0. 0. 0. 0. 0. 0. 0. 0. 0. 0. 0. 0. 0. 0. 0. 0. 0. 0. 0.]
Inicio: 0 0
Final:  19 19
{'model': 24, 'firmware': (1, 27), 'hardware': 5, 'serialnumber': 'CEF99AF2C1EA9FC2A2EB92F15D2A3C00'}
('Good', 0)
RPlidar data acquisition thread [Listening]
Array de particulas =  [[x=878.60 y=346.54 orient=0.4804], [x=602.67 y=547.17 orient=3.7974], [x=704.17 y=95.754 orient=5.0776], [x=291.76 y=50.854 orient=1.7851], [x=172.30 y=298.14 orient=1.1677], [x=870.66 y=924.62 orient=3.7136], [x=319.31 y=266.41 orient=4.7614], [x=90.266 y=365.82 orient=4.2636], [x=848.47 y=986.83 orient=1.3853], [x=919.89 y=839.44 orient=1.7312]]
****************************
****     SELF TEST     *****
Motor:      ERROR
Accel data: OK
RPlidar:    OK
****************************
Tiempo de prediccion: 0.000467
Get SCAN
Tiempo de prediccion: 0.000427
Get SCAN
-- Tiempo de Rotacion: 0.002778
-- Tiempo de PrediccionLnmk: 0.000071
-- Tiempo de AsociccionLnmk: 0.010521
-- Tiempo de WeightLnmk: 0.000065
- Tiempo de update: 0.132577
- Tiempo de Norm: 0.000112
- Tiempo de Resample: 0.004639
Tiempo de update top: 0.137468
Tiempo de prediccion: 0.000400
Get SCAN
Tiempo de prediccion: 0.000396
Get SCAN
- Tiempo de update: 0.181878
- Tiempo de Norm: 0.000116
- Tiempo de Resample: 0.004578
Tiempo de update top: 0.186745
Tiempo de prediccion: 0.000383
Get SCAN
- Tiempo de update: 0.150878
- Tiempo de Norm: 0.000207
- Tiempo de Resample: 0.011715
Tiempo de update top: 0.163020
Tiempo de prediccion: 0.000766
Get SCAN
- Tiempo de update: 0.133263
- Tiempo de Norm: 0.000127
- Tiempo de Resample: 0.004465
Tiempo de update top: 0.137999
Tiempo de prediccion: 0.000375
Get SCAN
- Tiempo de update: 0.131502
- Tiempo de Norm: 0.000123
- Tiempo de Resample: 0.004352
Tiempo de update top: 0.136103
Tiempo de prediccion: 0.000377
Get SCAN
- Tiempo de update: 0.130155
- Tiempo de Norm: 0.000127
- Tiempo de Resample: 0.004472
Tiempo de update top: 0.134893
Cleanup Explorer Robot
RPlidar data acquisition thread [Finished]
Cleanup RPlidar
